{
   "abstract" : "Common files for Lemonldap::NG infrastructure",
   "author" : [
      "Xavier Guimard <x.guimard@free.fr>, Clement Oudot <clement@oodo.net>, Christophe Maudoux <chrmdx@gmail.com>, Maxime Besson <maxime.besson@worteks.com>"
   ],
   "dynamic_config" : 1,
   "generated_by" : "ExtUtils::MakeMaker version 7.62, CPAN::Meta::Converter version 2.150010",
   "license" : [
      "open_source"
   ],
   "meta-spec" : {
      "url" : "http://search.cpan.org/perldoc?CPAN::Meta::Spec",
      "version" : 2
   },
   "name" : "Lemonldap-NG-Common",
   "no_index" : {
      "directory" : [
         "t",
         "inc"
      ]
   },
   "prereqs" : {
      "build" : {
         "requires" : {
            "IO::String" : "0",
            "MIME::Entity" : "0",
            "Net::LDAP" : "0",
            "String::Random" : "0",
            "Test::Output" : "0",
            "Test::Pod" : "1"
         }
      },
      "configure" : {
         "requires" : {
            "ExtUtils::MakeMaker" : "0"
         }
      },
      "runtime" : {
         "recommends" : {
            "Apache::Session::Browseable" : "v1.3.9",
            "Convert::Base32" : "0",
            "Cookie::Baker::XS" : "0",
            "Crypt::URandom" : "0",
            "DBI" : "0",
            "Date::Parse" : "0",
            "LWP::Protocol::https" : "0",
            "Net::LDAP" : "0",
            "SOAP::Lite" : "0",
            "String::Random" : "0"
         },
         "requires" : {
            "Apache::Session" : "0",
            "Cache::Cache" : "0",
            "Config::IniFiles" : "0",
            "Crypt::OpenSSL::Bignum" : "0",
            "Crypt::OpenSSL::RSA" : "0",
            "Crypt::OpenSSL::X509" : "0",
            "Crypt::Rijndael" : "0",
            "Crypt::URandom" : "0",
            "Digest::SHA" : "0",
            "HTML::Template" : "0",
            "JSON" : "0",
            "JSON::XS" : "0",
            "LWP::UserAgent" : "0",
            "Mouse" : "0",
            "Plack" : "0",
            "URI" : "0",
            "XML::LibXML" : "0"
         }
      }
   },
   "release_status" : "stable",
   "resources" : {
      "X_twitter" : "https://twitter.com/lemonldapng",
      "bugtracker" : {
         "web" : "https://gitlab.ow2.org/lemonldap-ng/lemonldap-ng/issues"
      },
      "homepage" : "https://lemonldap-ng.org/",
      "license" : [
         "http://opensource.org/licenses/GPL-2.0"
      ],
      "x_MailingList" : "mailto:lemonldap-ng-dev@ow2.org"
   },
   "version" : "v2.16.2",
   "x_serialization_backend" : "JSON::PP version 4.07"
}
